P55Ulgq7-28640611
i384v6Lg-50225935

xndJi6Mx-41778821

H0JckNcs-31725764

v4UAF8wi-29480590

qTXx5aOq-40151122

IxjCN8Ss-18805579

vl66DFCx-10734176

zfOVnUNi-00659697

02lzrp0A-55605294
ltNCGeu6-60281700

15kc9iLV-68677658

TNP2AUI4-88060780

GdBZRAN6-65957083

qOdcubHL-43204713

r_dmDruH-97411797

lz0SlNA4-14572699
piYvPAxy-49792193

nftsfL9S-83544254

HX6slUN4-29001769
Bcp0KJWF-08963196

aJtp0Y6K-74040822

rcxqoJTI-39776849

yGJFfXmP-45555091
2YAhJrhy-05306768

qdFj8TF4-21841145
o3n6TzJ7-20016574
GUBmX7Ex-79991555

oHNdWwTs-05577468
