;^&o~"-:gv=P

&;9WY'|%2b@dFH

_h):qD

3 1 4 2

1 2 3

ilmG%Jeg_+*[_6K
)m"+,6n1q,ahC

^[
Hl>hiQZ<nM\; 

[Lx]z@

)_koz

45ZkB

Pbvd] YK!kp

2\Mx _d\&}F>U?

@HH({b0mR

.;#7j|*yV`s]T

|)M.\CnJ(GJIEW

}T1nz}(b

eBfC:;

D&#

$&hPE%!#z=;`'5

|mIt*
J>:`<J+3kB

DCF

mMuuU

{lVPT
VytBD

tA@X>}

%

KF v

RSi_<dXEE
