a4736418-bf4f-4230-8c1b-ab328a9bd2cd

c3620949-e199-492b-a4d4-dc4dd6d2f247

a32079da-06e5-451b-bfa3-456ac17b8380

c0539635-fd4b-4761-b13e-6b2b9db676d4

f6143364-1de8-43b0-a07b-588e62cc0a04

d840e8f0-c79a-48a1-99a6-40ffbec277be

5de2468d-e2ae-4c03-8282-63c2016528f9

946b690e-e9a3-434c-814a-8cc95de28380

4581c0d1-83da-4e91-91f3-9becc03543bb

7cef8713-ac66-4933-a458-85bf9fb6440e
c3061e19-f2a3-4e14-bda0-e42ceb818c23
636b1787-85a8-452b-b0e3-530812f96d05

f4480692-ac92-48fc-be42-497551b960eb

edba3183-6bb7-4a1a-8a2c-f38830c1838f
bd95367b-5fe0-492c-8153-38943f77011a

bdfc4525-4bb4-413e-b318-19156429f28d
f705cb0c-ca0c-4c3f-b7fe-9c82480176fd

622a33fe-a1a5-4fb4-b917-7b87fd864c0e

64ce84d9-c95f-4849-afc9-3552597ebc50
bbc3053c-dc16-4ad7-b291-fb95465970ab

d539bc4b-5d4e-4a9f-bbff-0e55bfe451b4

3acbe28c-929a-488a-8306-01ed456385d9

a19e101f-e0c1-422e-a453-0f65d9cc6ed1

ce57038a-64d3-4bf8-a276-dcd1a475d6f3

04b9b968-5273-4c13-bde9-fb9f057bad9e

db4b6039-83a1-4695-98b0-be88ad6379cc
8204f1fd-9059-4d16-afff-0dea9b5afbd0
607d6dc2-ce04-4c43-9713-af2dbfd13e52
