26

3
Dvu90tzC-31112973
8kcAaezM-59200539
_XomHj3i-61182520
3 1 2
1 2 3
1 3 2
3 1 2
1 3 2
1 3 2
3 2 1
2 3 1
3 1 2
2 1 3

5
mn_YvR53-91651376
3_CNH4Mw-32802687
riVikaCc-23071609
CTm0G6nr-92053380
tbPS_amA-22581995
2 5 4 1 3
5 1 3 2 4
5 2 3 1 4
3 4 1 5 2
2 1 5 3 4
3 1 4 2 5
4 1 3 5 2
3 5 4 2 1
1 3 2 4 5
4 1 2 5 3
5 2 4 1 3

1
xoxzpjAe-75383299
1
1
1

4
pdFiFZhY-47375562
NO81eBBY-27090023
_kHn2KYV-92965539
7suebs1Z-29241736
1 2 3 4

4
BP3cbU_Z-24261314
xRITC8OY-15895367
_fRdA0Yz-47795509
c9ti_qZa-33626896
3 2 4 1
2 3 4 1
3 4 1 2

4
qgawSL2n-92140436
sob5SiVx-70712858
M137olI1-85602689
UdvfCyhj-56403760
1 2 4 3

4
7RnGmFWG-87943501
aPLEQVyE-95176845
lHQ3t4AS-60229930
1XfBhfGp-39986352
1 4 3 2
1 2 3 4
3 1 2 4
2 1 3 4
4 3 2 1
1 2 4 3
2 1 3 4
1 2 3 4
4 3 2 1
1 4 3 2
2 4 1 3
1 4 3 2

5
_jENi6Mc-61354085
g5FJHFsK-08572417
qLnw0V8Q-97597992
NSvvjomk-95493841
Tz1sBzRj-47599659
5 3 2 1 4
2 5 1 3 4
1 4 5 3 2
2 1 4 5 3
5 4 1 3 2
4 3 2 5 1

5
BFj__9xx-98547163
jhelGWi0-91937115
yoQ_lNGU-93785760
vlSrITu6-62848974
VYcSAxK5-00182721
5 3 1 4 2
3 4 5 1 2
5 4 3 2 1

2
9vCauDwb-81802495
T7dG2UHg-65036927
1 2
1 2
1 2
2 1
2 1
2 1

2
pCoqCEeO-03734311
lzEZL8Cf-11917857
2 1
2 1
2 1
2 1
1 2
1 2
2 1
2 1
1 2
1 2

1
IgRgmQfB-68700324
1
1
1
1

4
YFyaUV6I-20717832
W6ugS98S-92473466
JkiNL0od-44741731
gelFy3ZB-45699828
3 4 1 2
1 2 3 4
4 3 2 1
1 4 2 3
2 1 3 4
4 1 3 2
3 1 2 4
4 1 3 2
1 2 3 4
1 2 3 4
1 3 2 4
4 3 1 2

1
xHtenKLJ-16046569
1
1
1
1
1

2
oQgvXp14-89416398
XBYcSlu6-27162156
1 2
2 1
2 1
2 1
1 2

4
CGqTs1zm-65370445
V3cK8PgM-39447307
FHrb5ZDO-81458783
bz72AXl4-71949494
1 3 2 4
4 1 2 3
4 2 1 3
2 4 3 1
4 1 3 2
1 4 2 3
4 3 2 1
3 4 2 1
1 4 3 2
3 1 2 4
4 2 3 1
2 1 3 4
4 3 2 1

5
RU7sQOoc-39675979
5TaBS940-59291299
oL05f6_f-78863706
yE6DDgep-78622866
dpXCDZhj-12270329
5 2 1 4 3
1 2 4 3 5
2 1 5 4 3
5 3 1 2 4
4 3 1 2 5
5 3 2 4 1

4
326oBpUj-52956839
zQyEBjQP-45918709
GbY10C24-51681276
oe8jCWhG-88916252
1 3 4 2
1 2 3 4
3 2 1 4
1 2 3 4
1 2 3 4

4
qr6zrK6R-52688467
6YnJxjQU-48250642
Th0Ia8vk-10735860
_tC_KNQ7-81890788
4 3 1 2
4 1 3 2
3 4 1 2
4 2 1 3
1 3 4 2
2 1 4 3
2 3 1 4
3 1 4 2
3 4 2 1

2
9ssMEpTR-66806199
Tfm3foGj-83585245
1 2
2 1
1 2
1 2
1 2
2 1
1 2

1
bhlEAXth-19005357
1
1
1
1
1
1

3
W0oQ22AX-01595625
Rc0d5IJD-88020810
FZXqhXg0-59897551
3 1 2
3 1 2
3 1 2
1 3 2

2
crpy8K9x-37231413
V1rUWvJ6-58456665
2 1
2 1
2 1
2 1
2 1
1 2
1 2

2
nDMjZWKE-95638244
EXnKzCod-77538522
2 1
1 2

5
kGDFdIVr-73455437
2lK3Cp7K-66006664
c8qHzFKb-99728711
32S1xiW0-77402124
sjwDr1Tz-49019906
4 1 3 5 2
4 1 3 5 2
2 1 3 5 4
5 4 1 2 3
5 2 3 4 1
4 5 2 3 1
3 5 2 4 1

3
DgYGH1fS-14614854
WffQ986P-61296469
IBS2KRIS-75092346
1 3 2
2 1 3
3 2 1
2 3 1
3 1 2
